{"type":"data","nodes":[{"type":"data","data":[{"debug":1},true],"uses":{}},{"type":"data","data":[{"query":1,"limit":2,"total":3,"page":4,"start":5,"end":2,"previous":6,"next":7,"results":8},"",20,4718,1,0,false,2,{"yearSpan":9,"numberOfLocations":10,"inscriptions":11},2530,155,[12,79,119,144,181,204,237,274,325,357,381,419,450,484,513,538,565,589,612,637],{"file":13,"metadataFile":14,"htmlFile":15,"uri":16,"title":17,"status":18,"type":19,"objectType":23,"material":27,"layoutDesc":31,"letterHeight":35,"notBefore":49,"notAfter":50,"places":51,"geo":56,"facsimile":59,"country":62,"region":63,"settlement":64,"textLang":65,"placeName":53,"keywords":68},"ISic000001","metadata/ISic000001.json","html/ISic000001.json","http://sicily.classics.ox.ac.uk/inscription/ISic000001","Funerary inscription of Zethus","draft",{"_":20,"ana":21,"ref":22},"funerary","#function.funerary","http://www.eagle-network.eu/voc/typeins/lod/92.html",{"_":24,"ana":25,"ref":26},"plaque","#object.plaque","https://www.eagle-network.eu/voc/objtyp/lod/259.html",{"_":28,"ana":29,"ref":30},"marble","#material.stone.marble","http://www.eagle-network.eu/voc/material/lod/48.html",{"_":32,"ana":33,"ref":34},"chiselled","#execution.chiselled","http://www.eagle-network.eu/voc/writing/lod/1",[36,41,45],{"l":37,"from":38,"to":38,"h":39,"unit":40},"Line 1","line1","32-35","mm",{"l":42,"from":43,"to":43,"h":44,"unit":40},"Line 2","line2","35",{"l":46,"from":47,"to":47,"h":48,"unit":40},"Line 3","line3","30-32",50,300,[52],{"_":53,"type":54,"ref":55},"Caltanissetta","modern","http://sws.geonames.org/2525448",[57,58],37,14,{"url":60,"desc":61},"ISic000001_tiled.tif","Photo Museo Archeologico Regionale Antonino Salinas","Italy","Sicily","Palermo",{"_":66,"mainLang":67},"Latin","la",[69,70,18,20,24,28,71,72,73,74,75,76,77,78,67],"http://sicily.classics.ox.ac.uk/inscription/isic000001","funerary inscription of zethus","50","300","caltanissetta","italy","sicily","palermo","museo archeologico regionale antonino salinas","latin",{"file":80,"metadataFile":81,"htmlFile":82,"uri":83,"title":84,"status":18,"type":85,"objectType":86,"material":88,"layoutDesc":89,"letterHeight":90,"notBefore":99,"notAfter":50,"places":100,"geo":108,"facsimile":110,"country":62,"region":63,"settlement":64,"textLang":112,"placeName":102,"keywords":113},"ISic000002","metadata/ISic000002.json","html/ISic000002.json","http://sicily.classics.ox.ac.uk/inscription/ISic000002","Epitaph for Lurius Zosimus",{"_":20,"ana":21,"ref":22},{"_":24,"ana":25,"ref":87},"http://www.eagle-network.eu/voc/objtyp/lod/259.html",{"_":28,"ana":29,"ref":30},{"_":32,"ana":33,"ref":34},[91,93,95],{"l":37,"from":38,"to":38,"h":92,"unit":40},"20",{"l":42,"from":43,"to":43,"h":94,"unit":40},"15-18",{"l":96,"from":47,"to":97,"h":98,"unit":40},"Line 3-4","line4","10-15",201,[101,105],{"_":102,"type":103,"ref":104},"Catina","ancient","http://pleiades.stoa.org/places/462270",{"_":106,"type":54,"ref":107},"Catania","http://sws.geonames.org/2525068",[57,109],15,{"url":111,"desc":61},"ISic000002_tiled.tif",{"_":66,"mainLang":67},[114,115,18,20,24,28,116,72,117,118,74,75,76,77,78,67],"http://sicily.classics.ox.ac.uk/inscription/isic000002","epitaph for lurius zosimus","201","catina","catania",{"file":120,"metadataFile":121,"htmlFile":122,"uri":123,"title":124,"status":18,"type":125,"objectType":126,"material":128,"layoutDesc":129,"letterHeight":130,"notBefore":132,"notAfter":132,"places":133,"geo":136,"facsimile":137,"country":62,"region":63,"settlement":64,"textLang":140,"placeName":102,"keywords":141},"ISic000003","metadata/ISic000003.json","html/ISic000003.json","http://sicily.classics.ox.ac.uk/inscription/ISic000003","Epitaph for Culucuitas",{"_":20,"ana":21,"ref":22},[127,1],{"_":24,"ana":25,"ref":87},{"_":28,"ana":29,"ref":30},{"_":32,"ana":33,"ref":34},[131],{"l":37,"from":38,"to":38,"unit":40},null,[134,135],{"_":102,"type":103,"ref":104},{"_":106,"type":54,"ref":107},[57,109],{"url":138,"desc":139},"ISic000003_tiled.tif","I.Sicily with the permission of the Assessorato Regionale dei Beni Culturali e dell’Identità Siciliana - Dipartimento dei Beni Culturali e dell’Identità Siciliana; courtesy  Museo Archeologico Regionale Antonino Salinas; photo J.Prag 23.05.22",{"_":66,"mainLang":67},[142,143,18,20,28,117,118,74,75,76,77,78,67],"http://sicily.classics.ox.ac.uk/inscription/isic000003","epitaph for culucuitas",{"file":145,"metadataFile":146,"htmlFile":147,"uri":148,"title":149,"status":18,"type":150,"objectType":154,"material":156,"layoutDesc":157,"letterHeight":158,"notBefore":160,"notAfter":161,"places":162,"geo":169,"facsimile":170,"country":62,"region":63,"settlement":64,"textLang":173,"placeName":164,"keywords":174},"ISic000004","metadata/ISic000004.json","html/ISic000004.json","http://sicily.classics.ox.ac.uk/inscription/ISic000004","Inscription recording construction of a sphaeristrium by a father and son",{"_":151,"ana":152,"ref":153},"building","#function.building","http://www.eagle-network.eu/voc/typeins/lod/86.html",{"_":24,"ana":25,"ref":155},"http://www.eagle-network.eu/voc/objtyp/lod/259",{"_":28,"ana":29,"ref":30},{"_":32,"ana":33,"ref":34},[159],{"l":37,"from":38,"to":38,"unit":40},100,150,[163,166],{"_":164,"type":103,"ref":165},"Centuripae","http://pleiades.stoa.org/places/462153",{"_":167,"type":54,"ref":168},"Centuripe","http://sws.geonames.org/2525032",[57,58],{"url":171,"desc":172},"ISic000004_tiled.tif","Photo J.Prag, 2022-05-23, courtesy Museo Archeologico Regionale Antonino Salinas",{"_":66,"mainLang":67},[175,176,18,151,24,28,177,178,179,180,74,75,76,77,78,67],"http://sicily.classics.ox.ac.uk/inscription/isic000004","inscription recording construction of a sphaeristrium by a father and son","100","150","centuripae","centuripe",{"file":182,"metadataFile":183,"htmlFile":184,"uri":185,"title":186,"status":18,"type":187,"objectType":1,"material":188,"layoutDesc":189,"letterHeight":190,"notBefore":4,"notAfter":50,"places":192,"geo":195,"facsimile":196,"country":62,"region":63,"settlement":64,"textLang":199,"placeName":164,"keywords":200},"ISic000005","metadata/ISic000005.json","html/ISic000005.json","http://sicily.classics.ox.ac.uk/inscription/ISic000005","Funerary inscription for Marcus Avianius Pistianus, Maria Eupraxia and Marius Eutychianus",{"_":20,"ana":21,"ref":22},{"_":28,"ana":29,"ref":30},{"_":32,"ana":33,"ref":34},[191],{"l":37,"from":38,"to":38,"unit":40},[193,194],{"_":164,"type":103,"ref":165},{"_":167,"type":54,"ref":168},[57,58],{"url":197,"desc":198},"ISic000005_tiled.tif","I.Sicily with the permission of the Assessorato Regionale dei Beni Culturali e dell’Identità Siciliana - Dipartimento dei Beni Culturali e dell’Identità Siciliana",{"_":66,"mainLang":67},[201,202,18,20,28,203,72,179,180,74,75,76,77,78,67],"http://sicily.classics.ox.ac.uk/inscription/isic000005","funerary inscription for marcus avianius pistianus, maria eupraxia and marius eutychianus","1",{"file":205,"metadataFile":206,"htmlFile":207,"uri":208,"title":209,"status":18,"type":210,"objectType":211,"material":212,"layoutDesc":213,"letterHeight":214,"notBefore":4,"notAfter":216,"places":217,"geo":224,"facsimile":227,"country":62,"region":63,"settlement":64,"textLang":230,"placeName":219,"keywords":231},"ISic000006","metadata/ISic000006.json","html/ISic000006.json","http://sicily.classics.ox.ac.uk/inscription/ISic000006","Funerary inscription for Gaius Iulius Felix and Appuleia Rogata",{"_":20,"ana":21,"ref":22},{"_":24,"ana":25,"ref":87},{"_":28,"ana":29,"ref":30},{"_":32,"ana":33,"ref":34},[215],{"l":37,"from":38,"to":38,"unit":40},200,[218,221],{"_":219,"type":103,"ref":220},"Cossura","http://pleiades.stoa.org/places/462168",{"_":222,"type":54,"ref":223},"Pantelleria","http://sws.geonames.org/2523889",[225,226],36,12,{"url":228,"desc":229},"ISic000006_tiled.tif","Photo J. Prag, courtesy  Museo Archeologico Regionale Antonino Salinas",{"_":66,"mainLang":67},[232,233,18,20,24,28,203,234,235,236,74,75,76,77,78,67],"http://sicily.classics.ox.ac.uk/inscription/isic000006","funerary inscription for gaius iulius felix and appuleia rogata","200","cossura","pantelleria",{"file":238,"metadataFile":239,"htmlFile":240,"uri":241,"title":242,"status":18,"type":243,"objectType":244,"material":245,"layoutDesc":249,"letterHeight":250,"notBefore":252,"notAfter":253,"places":254,"geo":261,"facsimile":262,"country":62,"region":63,"settlement":259,"textLang":265,"placeName":256,"keywords":266},"ISic000007","metadata/ISic000007.json","html/ISic000007.json","http://sicily.classics.ox.ac.uk/inscription/ISic000007","Construction of fortification works under Sextus Pompeius by L. Plinius Rufus",{"_":151,"ana":152,"ref":153},{"_":24,"ana":25,"ref":87},{"_":246,"ana":247,"ref":248},"limestone","#material.stone.limestone","http://www.eagle-network.eu/voc/material/lod/66.html",{"_":32,"ana":33,"ref":34},[251],{"l":37,"from":38,"to":38,"unit":40},-39,-36,[255,258],{"_":256,"type":103,"ref":257},"Lilybaeum","http://pleiades.stoa.org/places/462281",{"_":259,"type":54,"ref":260},"Marsala","http://sws.geonames.org/6542148",[57,226],{"url":263,"desc":264},"ISic000007_tiled.tif","Photo J. Prag with the permission of the Assessorato Regionale dei Beni Culturali e dell’Identità Siciliana - Dipartimento dei Beni Culturali e dell’Identità Siciliana",{"_":66,"mainLang":67},[267,268,18,151,24,246,269,270,271,272,74,75,272,273,78,67],"http://sicily.classics.ox.ac.uk/inscription/isic000007","construction of fortification works under sextus pompeius by l. plinius rufus","-39","-36","lilybaeum","marsala","museo archeologico regionale lilibeo marsala - baglio anselmi",{"file":275,"metadataFile":276,"htmlFile":277,"uri":278,"title":279,"status":18,"type":280,"objectType":281,"material":285,"layoutDesc":289,"letterHeight":290,"notBefore":4,"notAfter":50,"places":308,"geo":315,"facsimile":317,"country":62,"region":63,"settlement":64,"textLang":319,"placeName":310,"keywords":320},"ISic000008","metadata/ISic000008.json","html/ISic000008.json","http://sicily.classics.ox.ac.uk/inscription/ISic000008","Epitaph for Vibia Pothine",{"_":20,"ana":21,"ref":22},{"_":282,"ana":283,"ref":284},"stele","#object.stele","http://www.eagle-network.eu/voc/objtyp/lod/250",{"_":286,"ana":287,"ref":288},"volcanic (pietra lavica locale)","#material.stone.volcanic","http://www.eagle-network.eu/voc/material/lod/28.html",{"_":32,"ana":33,"ref":34},[291,293,296,300,304],{"l":37,"from":38,"to":38,"h":292,"unit":40},"45",{"l":294,"from":43,"to":47,"h":295,"unit":40},"Lines 2-3","40",{"l":297,"from":97,"to":298,"h":299,"unit":40},"Lines 4-5","line5","30-35",{"l":301,"from":302,"to":302,"h":303,"unit":40},"Line 6","line6","30-40",{"l":305,"from":306,"to":307,"h":299,"unit":40},"Lines 7-8","line7","line8",[309,312],{"_":310,"type":103,"ref":311},"Lipara","http://pleiades.stoa.org/places/462283",{"_":313,"type":54,"ref":314},"Lipari","http://sws.geonames.org/2524378",[316,58],38,{"url":318,"desc":61},"ISic000008_tiled.tif",{"_":66,"mainLang":67},[321,322,18,20,282,286,203,72,323,324,74,75,76,77,78,67],"http://sicily.classics.ox.ac.uk/inscription/isic000008","epitaph for vibia pothine","lipara","lipari",{"file":326,"metadataFile":327,"htmlFile":328,"uri":329,"title":330,"status":18,"type":331,"objectType":335,"material":337,"layoutDesc":338,"letterHeight":339,"notBefore":49,"notAfter":160,"places":341,"geo":348,"facsimile":350,"country":62,"region":63,"settlement":64,"textLang":352,"placeName":343,"keywords":353},"ISic000009","metadata/ISic000009.json","html/ISic000009.json","http://sicily.classics.ox.ac.uk/inscription/ISic000009","Dedication by the quaestor propraetore L. Cornelius Marcellus",{"_":332,"ana":333,"ref":334},"dedication","#function.dedication","http://www.eagle-network.eu/voc/typeins/lod/88.html",[336,1],{"_":24,"ana":25,"ref":87},{"_":246,"ana":247,"ref":248},{"_":32,"ana":33,"ref":34},[340],{"l":37,"from":38,"to":38,"unit":40},[342,346],{"_":343,"type":103,"ref":344,"cert":345},"Panhormus","http://pleiades.stoa.org/places/462410","low",{"_":64,"type":54,"ref":347},"http://sws.geonames.org/2523920",[316,349],13,{"url":351,"desc":198},"ISic000009_tiled.tif",{"_":66,"mainLang":67},[354,355,18,332,246,71,177,356,76,74,75,76,77,78,67],"http://sicily.classics.ox.ac.uk/inscription/isic000009","dedication by the quaestor propraetore l. cornelius marcellus","panhormus",{"file":358,"metadataFile":359,"htmlFile":360,"uri":361,"title":362,"status":18,"type":363,"objectType":364,"material":365,"layoutDesc":366,"letterHeight":367,"notBefore":4,"notAfter":160,"places":371,"geo":374,"facsimile":375,"country":62,"region":63,"settlement":64,"textLang":377,"placeName":343,"keywords":378},"ISic000010","metadata/ISic000010.json","html/ISic000010.json","http://sicily.classics.ox.ac.uk/inscription/ISic000010","Dedication to Nemesis",{"_":332,"ana":333,"ref":334},{"_":24,"ana":25,"ref":87},{"_":246,"ana":247,"ref":248},{"_":32,"ana":33,"ref":34},[368],{"l":369,"from":38,"to":47,"h":370,"unit":40},"Line 1-3","80",[372,373],{"_":343,"type":103,"ref":344,"cert":345},{"_":64,"type":54,"ref":347},[316,349],{"url":376,"desc":198},"ISic000010_tiled.tif",{"_":66,"mainLang":67},[379,380,18,332,24,246,203,177,356,76,74,75,76,77,78,67],"http://sicily.classics.ox.ac.uk/inscription/isic000010","dedication to nemesis",{"file":382,"metadataFile":383,"htmlFile":384,"uri":385,"title":386,"status":18,"type":387,"objectType":391,"material":392,"layoutDesc":393,"letterHeight":394,"notBefore":405,"notAfter":406,"places":407,"geo":410,"facsimile":411,"country":62,"region":63,"settlement":64,"textLang":413,"placeName":343,"keywords":414},"ISic000011","metadata/ISic000011.json","html/ISic000011.json","http://sicily.classics.ox.ac.uk/inscription/ISic000011","I.Sicily inscription 000011",{"_":388,"ana":389,"ref":390},"honorific","#function.honorific","http://www.eagle-network.eu/voc/typeins/lod/69.html",{"_":24,"ana":25,"ref":87},{"_":246,"ana":247,"ref":248},{"_":32,"ana":33,"ref":34},[395,397,399,402,403],{"l":37,"from":38,"to":38,"h":396,"unit":40},"75",{"l":42,"from":43,"to":43,"h":398,"unit":40},"70",{"l":400,"from":47,"to":298,"h":401,"unit":40},"Line 3-5","55",{"l":301,"from":302,"to":302,"h":292,"unit":40},{"l":404,"from":306,"to":307,"h":295,"unit":40},"Line 7-8",162,163,[408,409],{"_":343,"type":103,"ref":344},{"_":64,"type":54,"ref":347},[316,349],{"url":412,"desc":198},"ISic000011_tiled.tif",{"_":66,"mainLang":67},[415,416,18,388,24,246,417,418,356,76,74,75,76,77,78,67],"http://sicily.classics.ox.ac.uk/inscription/isic000011","i.sicily inscription 000011","162","163",{"file":420,"metadataFile":421,"htmlFile":422,"uri":423,"title":424,"status":18,"type":425,"objectType":426,"material":427,"layoutDesc":428,"letterHeight":429,"notBefore":436,"notAfter":437,"places":438,"geo":441,"facsimile":442,"country":62,"region":63,"settlement":64,"textLang":444,"placeName":343,"keywords":445},"ISic000012","metadata/ISic000012.json","html/ISic000012.json","http://sicily.classics.ox.ac.uk/inscription/ISic000012","I.Sicily inscription 000012",{"_":388,"ana":389,"ref":390},{"_":24,"ana":25,"ref":87},{"_":246,"ana":247,"ref":248},{"_":32,"ana":33,"ref":34},[430,432,434],{"l":37,"from":38,"to":38,"h":431,"unit":40},"60",{"l":433,"from":43,"to":97,"h":401,"unit":40},"Line 2-4",{"l":435,"from":298,"to":298,"h":71,"unit":40},"Line 5",195,211,[439,440],{"_":343,"type":103,"ref":344},{"_":64,"type":54,"ref":347},[316,349],{"url":443,"desc":198},"ISic000012_tiled.tif",{"_":66,"mainLang":67},[446,447,18,388,24,246,448,449,356,76,74,75,76,77,78,67],"http://sicily.classics.ox.ac.uk/inscription/isic000012","i.sicily inscription 000012","195","211",{"file":451,"metadataFile":452,"htmlFile":453,"uri":454,"title":455,"status":18,"type":456,"objectType":457,"material":458,"layoutDesc":459,"letterHeight":460,"notBefore":436,"notAfter":472,"places":473,"geo":476,"facsimile":477,"country":62,"region":63,"settlement":64,"textLang":479,"placeName":343,"keywords":480},"ISic000013","metadata/ISic000013.json","html/ISic000013.json","http://sicily.classics.ox.ac.uk/inscription/ISic000013","I.Sicily inscription 000013",{"_":388,"ana":389,"ref":390},{"_":24,"ana":25,"ref":87},{"_":246,"ana":247,"ref":248},{"_":32,"ana":33,"ref":34},[461,462,465,468],{"l":37,"from":38,"to":38,"h":370,"unit":40},{"l":463,"from":43,"to":307,"h":464,"unit":40},"Line 2-8","40-45",{"l":466,"from":467,"to":467,"h":44,"unit":40},"Line 9","line9",{"l":469,"from":470,"to":470,"h":471,"unit":40},"Line 10","line10","25",196,[474,475],{"_":343,"type":103,"ref":344},{"_":64,"type":54,"ref":347},[316,349],{"url":478,"desc":198},"ISic000013_tiled.tif",{"_":66,"mainLang":67},[481,482,18,388,24,246,448,483,356,76,74,75,76,77,78,67],"http://sicily.classics.ox.ac.uk/inscription/isic000013","i.sicily inscription 000013","196",{"file":485,"metadataFile":486,"htmlFile":487,"uri":488,"title":489,"status":18,"type":490,"objectType":491,"material":495,"layoutDesc":496,"letterHeight":497,"notBefore":436,"notAfter":437,"places":503,"geo":506,"facsimile":507,"country":62,"region":63,"settlement":64,"textLang":509,"placeName":343,"keywords":510},"ISic000014","metadata/ISic000014.json","html/ISic000014.json","http://sicily.classics.ox.ac.uk/inscription/ISic000014","I.Sicily inscription 000014",{"_":388,"ana":389,"ref":390},{"_":492,"ana":493,"ref":494},"base","#object.base","http://www.eagle-network.eu/voc/objtyp/lod/57.html",{"_":246,"ana":247,"ref":248},{"_":32,"ana":33,"ref":34},[498,500,502],{"l":37,"from":38,"to":38,"h":499,"unit":40},"95",{"l":42,"from":43,"to":43,"h":501,"unit":40},"85",{"l":96,"from":47,"to":97,"h":431,"unit":40},[504,505],{"_":343,"type":103,"ref":344},{"_":64,"type":54,"ref":347},[316,349],{"url":508,"desc":198},"ISic000014_tiled.tif",{"_":66,"mainLang":67},[511,512,18,388,492,246,448,449,356,76,74,75,76,77,78,67],"http://sicily.classics.ox.ac.uk/inscription/isic000014","i.sicily inscription 000014",{"file":514,"metadataFile":515,"htmlFile":516,"uri":517,"title":518,"status":18,"type":519,"objectType":520,"material":521,"layoutDesc":522,"letterHeight":523,"notBefore":472,"notAfter":525,"places":526,"geo":529,"facsimile":530,"country":62,"region":63,"settlement":64,"textLang":533,"placeName":343,"keywords":534},"ISic000015","metadata/ISic000015.json","html/ISic000015.json","http://sicily.classics.ox.ac.uk/inscription/ISic000015","Honours for Caracalla",{"_":388,"ana":389,"ref":390},{"_":492,"ana":493,"ref":494},{"_":246,"ana":247,"ref":248},{"_":32,"ana":33,"ref":34},[524],{"l":37,"from":38,"to":38,"unit":40},197,[527,528],{"_":343,"type":103,"ref":344},{"_":64,"type":54,"ref":347},[316,349],{"url":531,"desc":532},"ISic000015_tiled.tif","I.Sicily with the permission of the Assessorato Regionale dei Beni Culturali e dell’Identità Siciliana - Dipartimento dei Beni Culturali e dell’Identità Siciliana; photo J. Prag 2017-07-21.",{"_":66,"mainLang":67},[535,536,18,388,492,246,483,537,356,76,74,75,76,77,78,67],"http://sicily.classics.ox.ac.uk/inscription/isic000015","honours for caracalla","197",{"file":539,"metadataFile":540,"htmlFile":541,"uri":542,"title":543,"status":18,"type":544,"objectType":545,"material":546,"layoutDesc":548,"letterHeight":549,"notBefore":552,"notAfter":552,"places":553,"geo":556,"facsimile":557,"country":62,"region":63,"settlement":64,"textLang":559,"placeName":343,"keywords":560},"ISic000016","metadata/ISic000016.json","html/ISic000016.json","http://sicily.classics.ox.ac.uk/inscription/ISic000016","I.Sicily inscription 000016",{"_":388,"ana":389,"ref":390},{"_":492,"ana":493,"ref":494},{"_":547,"ana":247,"ref":248},"limestone\n                                    ",{"_":32,"ana":33,"ref":34},[550],{"l":551,"from":38,"to":38,"unit":40},"Line 1\n                                ",198,[554,555],{"_":343,"type":103,"ref":344},{"_":64,"type":54,"ref":347},[316,349],{"url":558,"desc":198},"ISic000016_tiled.tif",{"_":66,"mainLang":67},[561,562,18,388,492,246,563,563,356,76,74,75,76,564,78,67],"http://sicily.classics.ox.ac.uk/inscription/isic000016","i.sicily inscription 000016","198","museo\n                            archeologico regionale antonino salinas",{"file":566,"metadataFile":567,"htmlFile":568,"uri":569,"title":570,"status":18,"type":571,"objectType":572,"material":573,"layoutDesc":574,"letterHeight":575,"notBefore":552,"notAfter":577,"places":578,"geo":581,"facsimile":582,"country":62,"region":63,"settlement":64,"textLang":584,"placeName":343,"keywords":585},"ISic000017","metadata/ISic000017.json","html/ISic000017.json","http://sicily.classics.ox.ac.uk/inscription/ISic000017","I.Sicily inscription 000017",{"_":388,"ana":389,"ref":390},{"_":492,"ana":493,"ref":494},{"_":547,"ana":247,"ref":248},{"_":32,"ana":33,"ref":34},[576],{"l":37,"from":38,"to":38,"unit":40},199,[579,580],{"_":343,"type":103,"ref":344},{"_":64,"type":54,"ref":347},[316,349],{"url":583,"desc":198},"ISic000017_tiled.tif",{"_":66,"mainLang":67},[586,587,18,388,492,246,563,588,356,76,74,75,76,564,78,67],"http://sicily.classics.ox.ac.uk/inscription/isic000017","i.sicily inscription 000017","199",{"file":590,"metadataFile":591,"htmlFile":592,"uri":593,"title":594,"status":18,"type":595,"objectType":596,"material":597,"layoutDesc":598,"letterHeight":599,"notBefore":132,"notAfter":132,"places":601,"geo":604,"facsimile":605,"country":62,"region":63,"settlement":64,"textLang":607,"placeName":343,"keywords":608},"ISic000018","metadata/ISic000018.json","html/ISic000018.json","http://sicily.classics.ox.ac.uk/inscription/ISic000018","I.Sicily inscription 000018",{"_":388,"ana":389,"ref":390},{"_":492,"ana":493,"ref":494},{"_":246,"ana":247,"ref":248},{"_":32,"ana":33,"ref":34},[600],{"l":37,"from":38,"to":38,"unit":40},[602,603],{"_":343,"type":103,"ref":344},{"_":64,"type":54,"ref":347},[316,349],{"url":606,"desc":198},"ISic000018_tiled.tif",{"_":66,"mainLang":67},[609,610,18,388,492,246,356,76,74,75,76,611,78,67],"http://sicily.classics.ox.ac.uk/inscription/isic000018","i.sicily inscription 000018","museo archeologico\n                            regionale antonino salinas",{"file":613,"metadataFile":614,"htmlFile":615,"uri":616,"title":617,"status":18,"type":618,"objectType":1,"material":619,"layoutDesc":620,"letterHeight":621,"notBefore":623,"notAfter":624,"places":625,"geo":628,"facsimile":629,"country":62,"region":63,"settlement":64,"textLang":631,"placeName":343,"keywords":632},"ISic000019","metadata/ISic000019.json","html/ISic000019.json","http://sicily.classics.ox.ac.uk/inscription/ISic000019","I.Sicily inscription 000019",{"_":388,"ana":389,"ref":390},{"_":547,"ana":247,"ref":248},{"_":32,"ana":33,"ref":34},[622],{"l":37,"from":38,"to":38,"unit":40},218,222,[626,627],{"_":343,"type":103,"ref":344},{"_":64,"type":54,"ref":347},[316,349],{"url":630,"desc":198},"ISic000019_tiled.tif",{"_":66,"mainLang":67},[633,634,18,388,246,635,636,356,76,74,75,76,611,78,67],"http://sicily.classics.ox.ac.uk/inscription/isic000019","i.sicily inscription 000019","218","222",{"file":638,"metadataFile":639,"htmlFile":640,"uri":641,"title":642,"status":18,"type":643,"objectType":644,"material":645,"layoutDesc":646,"letterHeight":647,"notBefore":623,"notAfter":649,"places":650,"geo":653,"facsimile":654,"country":62,"region":63,"settlement":64,"textLang":656,"placeName":343,"keywords":657},"ISic000020","metadata/ISic000020.json","html/ISic000020.json","http://sicily.classics.ox.ac.uk/inscription/ISic000020","I.Sicily inscription 000020",{"_":388,"ana":389,"ref":390},{"_":24,"ana":25,"ref":87},{"_":246,"ana":247,"ref":248},{"_":32,"ana":33,"ref":34},[648],{"l":37,"from":38,"to":38,"unit":40},235,[651,652],{"_":343,"type":103,"ref":344},{"_":64,"type":54,"ref":347},[316,349],{"url":655,"desc":198},"ISic000020_tiled.tif",{"_":66,"mainLang":67},[658,659,18,388,24,246,635,660,356,76,74,75,76,77,78,67],"http://sicily.classics.ox.ac.uk/inscription/isic000020","i.sicily inscription 000020","235"],"uses":{}}]}
